1 2 -50
2 1 -50
2 3 -50
3 2 -50
3 4 -50
4 3 -50
4 5 -50
5 4 -50
5 6 -50
6 5 -50
6 7 -50
7 6 -50
7 8 -50
8 7 -50
8 9 -50
9 8 -50
9 10 -50
10 9 -50
10 11 -50
11 10 -50
11 12 -50
12 11 -50
12 13 -50
13 12 -50
13 14 -50
14 13 -50
14 15 -50
15 14 -50
15 16 -50
16 15 -50

