1 2 -50
2 1 -50
1 4 -50
4 1 -50
2 3 -50
3 2 -50
2 5 -50
5 2 -50
4 6 -50
6 4 -50
4 7 -50
7 4 -50
3 8 -50
8 3 -50
3 9 -50
9 3 -50
5 10 -50
10 5 -50
5 11 -50
11 5 -50
6 12 -50
12 6 -50
6 13 -50
13 6 -50
7 14 -50
14 7 -50
7 15 -50
15 7 -50
15 16 -50
16 15 -50